<?xml version="1.0" encoding="UTF-8"?>
<svg width="22px" height="18px" viewBox="0 0 22 18" version="1.1" xmlns="http://www.w3.org/2000/svg" xmlns:xlink="http://www.w3.org/1999/xlink">
    <title>ic_book_grey copy 3</title>
    <g id="Page-1" stroke="none" stroke-width="1" fill="none" fill-rule="evenodd">
        <g id="Teacher-5.2---Overall" transform="translate(-1310.000000, -685.000000)" fill="#585858" fill-rule="nonzero">
            <g id="Group-8" transform="translate(20.000000, 329.000000)">
                <g id="lesson-evalution-/-(img_title_user_pending_lo)" transform="translate(1081.500000, 344.000000)">
                    <g id="ic_book_grey-copy-3" transform="translate(98.368730, 4.563518)">
                        <path d="M131.282751,10.8 C131.713054,10.8 132.063158,11.1509738 132.063158,11.5823468 L132.063158,11.5823468 L132.063158,24.0177291 C132.063158,24.2569391 131.956225,24.4798041 131.769826,24.6288962 C131.582766,24.7783563 131.341505,24.8334284 131.10803,24.7801234 C129.238167,24.352947 125.957167,23.8563416 122.844793,24.6202819 C124.644371,22.9128281 127.185357,22.6107418 128.726415,22.6070605 C129.823949,22.6043364 130.716798,21.7085324 130.716798,20.6099632 L130.716798,20.6099632 L130.716798,10.8 Z M111.746371,10.8 L111.746371,20.6100817 C111.746371,21.7086641 112.6393,22.604479 113.73677,22.6071295 C115.27784,22.6108109 117.818846,22.9128272 119.618365,24.620228 C116.506113,23.8562784 113.225014,24.3528162 111.355136,24.7800714 C111.121291,24.8335243 110.880249,24.7782307 110.693334,24.6288423 C110.506934,24.4797485 110.4,24.2569544 110.4,24.0176679 L110.4,24.0176679 L110.4,11.5823562 C110.4,11.150978 110.75018,10.8 111.180413,10.8 L111.180413,10.8 L111.746371,10.8 Z M113.492411,8 C115.335341,8.00426535 118.687312,8.42653516 120.431606,11.2057794 C120.502591,11.3190319 120.540202,11.4558908 120.540202,11.6015746 L120.540202,11.6015746 L120.540202,23.8666667 C118.414968,21.66626 115.3343,21.287085 113.495533,21.2827461 C113.059367,21.281643 112.704591,20.9311487 112.704591,20.5013778 L112.704591,20.5013778 L112.704591,8.78158891 C112.704591,8.57185128 112.787172,8.37483616 112.937094,8.22687258 C113.085382,8.0805269 113.281761,8 113.490553,8 L113.490553,8 Z M128.972672,8 C129.181243,8 129.377772,8.0805269 129.526061,8.22687258 C129.675986,8.37483616 129.758567,8.57185128 129.758567,8.78158891 L129.758567,8.78158891 L129.758567,20.5014513 C129.758567,20.9311487 129.403788,21.281643 128.967691,21.2827461 C127.128907,21.287085 124.04821,21.66626 121.922956,23.8666667 L121.922956,23.8666667 L121.922956,11.6016482 C121.922956,11.4559644 121.960493,11.3191054 122.031479,11.205853 C123.775864,8.4266087 127.127866,8.00433889 128.970739,8 L128.970739,8 Z"></path>
                    </g>
                </g>
            </g>
        </g>
    </g>
</svg>